{"page":1,"total_results":67,"total_pages":4,"results":[{"original_name":"Marvel's Daredevil","genre_ids":[28,80],"name":"Сорвиголова","popularity":30.109,"origin_country":["US"],"vote_count":1785,"first_air_date":"2015-04-10","backdrop_path":"/qsnXwGS7KBbX4JLqHvICngtR8qg.jpg","original_language":"en","id":61889,"vote_average":7.9,"overview":"Ослеплённый с детства (из-за несчастного случая) адвокат Мэтт Мёрдок под именем «Сорвиголова» использует остальные, невероятно усиленные, чувства и бойцовские навыки для борьбы с преступностью на улицах ночной Адской кухни.","poster_path":"/c47xj2YlMKPEMbLXlLriZaRnlXu.jpg"},{"original_name":"Marvel's Runaways","id":67466,"name":"Беглецы","popularity":20.73,"vote_count":241,"vote_average":7.8,"first_air_date":"2017-11-21","poster_path":"/w92yjz1sYzPJdpc7fIAGJJt9nWr.jpg","genre_ids":[10759,80,18,10765],"original_language":"en","backdrop_path":"/7PYAUaJzzUVxS4xiJHFe338vJd1.jpg","overview":"История шести подростков, которые случайно узнают, что их родители входят в состав группы суперзлодеев под названием «Прайд». Эта группа руководит преступным миром Лос-Анджелеса. Дети узнают, что каждый из них, как и их родители, обладает какими-то способностями (а кто-то и вовсе не является человеком). Подростки решают, что не готовы принять такую судьбу, и пытаются сбежать от своих родителей.","origin_country":["US"]},{"original_name":"Marvel's Jessica Jones","id":38472,"name":"Джессика Джонс","popularity":32.033,"vote_count":1103,"vote_average":7.6,"first_air_date":"2015-11-20","poster_path":"/7K54OG3m8AJCC9yUCOc4DHG3kmw.jpg","genre_ids":[10765,18],"original_language":"en","backdrop_path":"/57JFnZqpG5OLgHdZY7Zf9dKcZ5U.jpg","overview":"После трагических событий, оборвавших короткую супергеройскую карьеру Джессики Джонс, девушка пытается восстановить свою личную жизнь и начать карьеру частного детектива, но все меняется, когда в жизнь бывшей героини врывается мужчина из её прошлого, способный контролировать разум людей.","origin_country":["US"]},{"original_name":"Marvel's Inhumans","genre_ids":[18,10759,10765],"name":"Сверхлюди","popularity":15.679,"origin_country":["US"],"vote_count":201,"first_air_date":"2017-09-29","backdrop_path":"/9GNdPoCSzWYeo2eYKFVLvzcG6Wg.jpg","original_language":"en","id":68716,"vote_average":5.5,"overview":"История Королевской семьи, принадлежащей к расе Сверхлюдей. Вследствие военного переворота члены королевской фамилии под предводительством Чёрного Грома вынуждены покинуть свой дом в лунном городе Аттилан и бежать на острова, как в дальнейшем оказывается — Гавайи, где им предстоит спасать не только себя, но и весь мир от гибели.","poster_path":"/y3aFlpB4Vwn1Qz0WOTUOTf6GmPl.jpg"},{"original_name":"Marvel's The Punisher","id":67178,"name":"Каратель","popularity":23.65,"vote_count":767,"vote_average":8.1,"first_air_date":"2017-11-17","poster_path":"/7Zyx8kQr2nEbtSl8XV7ljio4vff.jpg","genre_ids":[10759,80,18],"original_language":"en","backdrop_path":"/sRr5NdPic882T24dNwkiw2VMst6.jpg","overview":"После того, как семья Фрэнка Касла была убита во время перестрелки нескольких банд Нью-Йорка, он решает отомстить и начинает охоту на преступников города. В преступном мире он становится известен как Каратель.","origin_country":["US"]},{"original_name":"Marvel's Agent Carter","genre_ids":[28,12],"name":"Агент Картер","popularity":19.374,"origin_country":["US"],"vote_count":556,"first_air_date":"2015-01-06","backdrop_path":"/ryksnIn006p7lsd83L9Za20TePv.jpg","original_language":"en","id":61550,"vote_average":7.6,"overview":"В 1946 году мир нанес Пегги серьезный удар, когда она оказывается в неудобном для нее положении с возвращением домой мужчин со сражений за границей. Работая на секретную организацию СНР (Стратегический Научный Резерв), Пегги должна найти баланс между административной работой и секретными миссиями для Говарда Старка, одновременно пытаясь жить нормальной жизнью одинокой женщины в Америке после утраты любви всей ее жизни — Стива Роджерса.","poster_path":"/dEbTdu1sytRR4GtrMX5tRiNgLU3.jpg"},{"original_name":"Marvel's Luke Cage","genre_ids":[80,18,10759,10765],"name":"Люк Кейдж","popularity":17.666,"origin_country":["US"],"vote_count":803,"first_air_date":"2016-09-30","backdrop_path":"/j7AHhA0bH5FlVPVMFcKNOLC4PMv.jpg","original_language":"en","id":62126,"vote_average":7,"overview":"На первый взгляд Люк Кейдж — заурядный молчаливый и замкнутый житель Гарлема. Он обитает в скромной холостяцкой квартирке, старается не заводить знакомств, даже работу выбирает самую неприметную — уборщика в парикмахерской или посудомойщика в ночном клубе. На самом деле здоровяк скрывает удивительную тайну — уголовное прошлое принесло ему не только массу проблем и трагическую потерю возлюбленной, но и безграничную физическую силу вкупе со сверхпрочной кожей. Люк старается быть таким, как все, но однажды все равно оказывается втянутым в криминальные разборки, за которыми стоит могущественный преступный авторитет Корнелл Стоукс по прозвищу Коттонмут. Стоукс как раз и является владельцем популярного заведения «Гарлемский рай», в котором работает Люк. Однако он использует легальный бизнес как прикрытие для торговли оружием. Вскоре Кейдж понимает, что этот злодей, заручившись поддержкой кузины-политика Мэрайи Диллард, контролирует весь Гарлем, из-за чего страдают простые жители. Люк решает, что, обладая такой силой, он не имеет права оставаться в стороне и дальше скрываться от своего прошлого. Герой бросает вызов бандитам, чья незаконная деятельность ломает жизни людей в его родном районе. Но сможет ли Кейдж победить это зло? Ведь даже у такого сильного человека, который без труда ломает кости врагам и ловит пули голыми руками, есть свои страхи и демоны, раздирающие его на части…","poster_path":"/xOCM4VgKtjGbCjtKSiJ7W9xYwsB.jpg"},{"original_name":"Marvel's The Defenders","id":62285,"name":"Защитники","popularity":12.806,"vote_count":530,"vote_average":7.1,"first_air_date":"2017-08-18","poster_path":"/gg2FoujYjmG2Oha24sAhd9aogvI.jpg","genre_ids":[10759,80,10765],"original_language":"en","backdrop_path":"/7eV2vDrj1AwlTffUud66v9o0Ytq.jpg","overview":"Сорвиголова, Джессика Джонс, Люк Кейдж и Железный Кулак объединяются для борьбы с преступностью Нью-Йорка.","origin_country":["US"]},{"original_name":"Marvel Rising: Initiation","genre_ids":[16,10759],"name":"Marvel Rising: Initiation","popularity":3.163,"origin_country":["US"],"vote_count":9,"first_air_date":"2018-08-13","backdrop_path":"/gC3tTz9wqXcmlQhEy1NilvVUVpJ.jpg","original_language":"en","id":83043,"vote_average":8.7,"overview":"","poster_path":"/nanDD3g6hF7JcrckygjxCPqViPT.jpg"},{"original_name":"Marvel's Avengers Assemble","genre_ids":[16,10759],"name":"Команда «Мстители»","popularity":15.815,"origin_country":["US"],"vote_count":0,"first_air_date":"2013-11-09","backdrop_path":"/mGHdzDAyMbLaHdNN1Q9H4BgPrP3.jpg","original_language":"en","id":59427,"vote_average":0,"overview":"Сериал воссоединит самую популярную команду  супергероев: Железный Человек, Халк, Капитан Америка, Тор, Соколиный  Глаз, Черная Вдова, а также новичок Сокол. Впервые в истории анимации  команда соберется в таком составе. Ведомые Железным Человеком, герои  тренируются и живут вместе в своей новой штаб-квартире в Башне  Мстителей. Самый опасные злодеи планеты не имеют ни единого шанса, когда  речь идет о Мстителях. Остановить Доктора Дума или отвоевать Асгард,  защитить Нью-Йорк от армии Аттумы или победить вампиров  Дракулы — Мстители должны работать в команде, чтобы победить.","poster_path":"/aVYPq7FSvsdNQOXVIFnndXJPCXn.jpg"},{"original_name":"Marvel's Agents of S.H.I.E.L.D.","genre_ids":[18,10759,10765],"name":"Агенты «Щ.И.Т.»","popularity":76.961,"origin_country":["US"],"vote_count":1576,"first_air_date":"2013-09-24","backdrop_path":"/80BRASQnT9KT7BkFeEI0EdeRIF3.jpg","original_language":"en","id":1403,"vote_average":6.9,"overview":"Агент Фил Колсон набирает специальную группу для борьбы с преступностью после событий фильма «Мстители». Новоиспечённой команде придётся не только сойтись в оперативной, а также исследовательской работе, но и сойтись характерами, чтобы дать отпор всем врагам организации «Щ.И.Т.»","poster_path":"/vSt6VdhvT9gUa5wc6rkYYAlJpQJ.jpg"},{"original_name":"The Marvel Super Heroes","genre_ids":[16,10759,10762,10765],"name":"The Marvel Super Heroes","popularity":3.639,"origin_country":["CA","US"],"vote_count":2,"first_air_date":"1966-09-05","backdrop_path":"/vhbMTE6UVbIoyiD262wRYwFiNBa.jpg","original_language":"en","id":2164,"vote_average":7.8,"overview":"","poster_path":null},{"original_name":"Marvel's Cloak & Dagger","id":66190,"name":"Плащ и Кинжал","popularity":14.497,"vote_count":224,"vote_average":7.4,"first_air_date":"2018-06-07","poster_path":"/oa50wfpa5Ip1AdPw17epdHuqyq1.jpg","genre_ids":[10759,18,10765],"original_language":"en","backdrop_path":"/iEXdA9n9R7Cne2ZY8PQfAjiGyFP.jpg","overview":"Тэнди Боуэн и Тайрон Джонсон — двое подростков из разных слоев общества, которые недавно узнали о своих сверхспособностях. Тэнди может излучать световые кинжалы, а Тайрон может поглощать других во тьму. Они быстро понимают, что вместе им лучше, чем порознь, но их чувства по отношению друг к другу делают их уже сложный мир еще более запутанным.","origin_country":["US"]},{"original_name":"Marvel's Spider-Man","id":72705,"name":"Человек-паук","popularity":13.716,"vote_count":34,"vote_average":7.4,"first_air_date":"2017-08-19","poster_path":"/dKdcyyHUR5WTMnrbPdYN5y9xPVp.jpg","genre_ids":[16,10765],"original_language":"en","backdrop_path":"/9zIFxEiurX1zVuBffHjwFRJTXDT.jpg","overview":"Умный подросток по имени Питер Паркер укушен радиоактивным пауком в школьной поездке в Оскорп и получает супер-силы. Он становится героем по имени Человек-Паук после смерти своего дяди Бена, и он должен приспособиться к новому образу жизни.","origin_country":["US"]},{"original_name":"Marvel's Iron Fist","genre_ids":[18,10759,10765],"name":"Железный кулак","popularity":6.842,"origin_country":["US"],"vote_count":1022,"first_air_date":"2017-03-17","backdrop_path":"/xHCfWGlxwbtMeeOnTvxUCZRGnkk.jpg","original_language":"en","id":62127,"vote_average":6.3,"overview":"Спустя годы после исчезновения, Дэниэл Рэнд  возвращается в Нью-Йорк и начинает борьбу с криминалом, используя свои  невообразимые навыки кунг-фу и способность вызывать силу Железного  кулака.","poster_path":"/hu9eGudTohsMTChNbqAlXuiKeIU.jpg"},{"original_name":"Ms. Marvel","genre_ids":[18,10759,10765],"name":"Мисс Марвел","popularity":1.126,"origin_country":[],"vote_count":0,"first_air_date":"2021-12-31","backdrop_path":"/qBFixm2UtNUrmOtGbBfwwNw94ir.jpg","original_language":"en","id":92782,"vote_average":0,"overview":"Сюжет сериала вращается вокруг девушки из Нью-Джерси Камалы Хан, которая получает сверхспособности.","poster_path":"/7UGKZ5c0HSwro6n7GChl8uyaIfy.jpg"},{"original_name":"Marvel Future Avengers","genre_ids":[16],"name":"Marvel Future Avengers","popularity":1.07,"origin_country":[],"vote_count":1,"first_air_date":"","backdrop_path":"/y9FhwCVyIqonm2XqwGrFtmalnkv.jpg","original_language":"ja","id":91278,"vote_average":10,"overview":"","poster_path":"/vtRxFVFa4MuhmWtIjbrp1yrxq8g.jpg"},{"original_name":"Marvel's Guardians of the Galaxy","genre_ids":[16,10759],"name":"Стражи Галактики","popularity":12.102,"origin_country":["US"],"vote_count":33,"first_air_date":"2015-09-05","backdrop_path":"/k9WCVeb0cm1gUNkorZXfpF1nsw4.jpg","original_language":"en","id":63181,"vote_average":7.6,"overview":"Прежде чем стать Стражами, каждому из них пришлось преодолеть немало трудностей на своём пути. \n\n \n\n«Стражи Галактики»  – анимационный сериал, основанный на серии комиксов Marvel.  \n\n \n\nПитер Квилл, дерзкий авантюрист и искатель приключений, которого зрители фильма запомнили как Звездного Лорда, собирается спасать вселенную от разного рода угроз и объединяет свои усилия с квартетом весьма разношерстных персонажей.","poster_path":"/oXwe3wVhdvvxiixL9UJf6PgBybZ.jpg"},{"original_name":"LEGO MARVEL Super Heroes: Maximum Overload","id":62576,"name":"LEGO MARVEL Super Heroes: Maximum Overload","popularity":1.938,"vote_count":4,"vote_average":7.4,"first_air_date":"2013-11-05","poster_path":null,"genre_ids":[16,10762],"original_language":"en","backdrop_path":null,"overview":"","origin_country":["US"]},{"original_name":"Marvel Mash-Up","genre_ids":[],"name":"Marvel Mash-Up","popularity":0.6,"origin_country":["US"],"vote_count":1,"first_air_date":"2012-01-04","backdrop_path":null,"original_language":"en","id":57083,"vote_average":8,"overview":"","poster_path":null}]}